Question 1.    1.Da. 2.Net. 
Question 2.    1.Da. 2.Net.
Question 3.    1.Da. 2.Net.
Question 4.    1.Da. 2.Net.
Question 5.    1.Da. 2.Net.
Question 6.    1.Da. 2.Net.
Question 7.    1.Da. 2.Net.
Question 8.    1.Da. 2.Net.
Question 9.    1.Da. 2.Net.
Question 10.    1.Da. 2.Net